id,name,model_id:id,group_id:id,perm_read,perm_write,perm_create,perm_unlink
access_service_request,access_service_request,model_service_request,base.group_user,1,1,1,1
access_support_team,access_support_team,model_support_team,base.group_user,1,1,1,1
access_category_type,access_category_type,model_category_type,base.group_user,1,1,1,1
access_service_sale_order_line_public,event.sale.order.line.public,sale.model_sale_order_line,base.group_public,1,1,1,1
access_service_product_product_public,event.product.product.public,sale.model_product_product,base.group_public,1,1,1,1
access_service_product_template_public,event.product.template.public,sale.model_product_template,base.group_public,1,1,1,1
access_service_stock_production_lot_public,event.stock.production.lot.public,stock.model_stock_production_lot,base.group_public,1,1,1,1
access_service_sale_order_public,event.sale.order.public,sale.model_sale_order,base.group_public,1,1,1,1
